…
n_table <- night %>% group_by(FishID) %>% tally()
n_table$DielPeriod <- "Night"

# Add datasets vertically
combined_table <- rbind(d_table, n_table)

# Sort by FishID
combined_table_sorted <- combined_table[order(combined_table$FishID),]
combined_table_sorted
```
```
# A tibble: 30 x 3
  FishID       n DielPeriod
  <fct>    <int> <chr>     
1 BMBF001    458 Day       
2 BMBF001    396 Night     
3 BMBF033    430 Day       
4 BMBF033    132 Night     
5 BMBF078    752 Day       
6 BMBF078    436 Night     
7 Carp-017  1612 Day       
8 Carp-017   344 Night     
9 Carp-021   514 Day       
10 Carp-021   136 Night     
# ... with 20 more rows
```
## 2. Mean Daily Position:
#### A. Mean daily position for each fish:
> fish_mean_pos <- fish_df %>% group_by(FishID,day(ymd_hms(Date))) %>% summarize(Mean_Lat = mean(ReceiverLat, na.rm=TRUE), Mean_Long = mean(ReceiverLong, na.rm=TRUE))
```
# A tibble: 293 x 4
# Groups:   FishID [15]
   FishID  `day(ymd_hms(Date))` Mean_Lat Mean_Long
   <fct>                  <int>    <dbl>     <dbl>
 1 BMBF001                    3     49.7     -97.1
 2 BMBF001                    4     49.7     -97.1
 3 BMBF001                    7     49.8     -97.1
 4 BMBF001                    8     49.8     -97.1
 5 BMBF001                   10     49.8     -97.1
 6 BMBF001                   11     49.8     -97.1
 7 BMBF001                   26     49.8     -97.1
 8 BMBF001                   27     49.8     -97.1
 9 BMBF033                   20     49.9     -97.1
10 BMBF033                   28     49.9     -97.1
# ... with 283 more rows
```
…
